Introduction to model fitting in R
…
Generate observations

add measurement uncertainty

SIR$rPointObs(model.point = c(I = 31), theta)

## obs 
##  30

obs.traj <- rTrajObs(SIR, theta, init.state, epi1$time) %>% as_data_frame

obs.traj

## # A tibble: 38 x 5
##     time        S          I           R   obs
##    <dbl>    <dbl>      <dbl>       <dbl> <int>
## 1      1 999.0000   1.000000   0.0000000     2
## 2      2 996.4323   2.709838   0.8578584     3
## 3      3 989.5301   7.295046   3.1748702     7
## 4      4 971.3444  19.297723   9.3579062    22
## 5      5 925.8476  48.804024  25.3483747    55
## 6      6 825.2761 111.044978  63.6789335   111
## 7      7 652.2171 205.657077 142.1258473   209
## 8      8 448.7676 284.482597 266.7498428   297
## 9      9 287.5238 297.326727 415.1494660   312
## 10    10 189.0369 256.025570 554.9375571   248
## # ... with 28 more rows
…
Going Further

Imperfect reporting of cases

epi2 %>% as_data_frame

## # A tibble: 38 x 2
##     time   obs
## *  <dbl> <int>
## 1      1     0
## 2      2     1
## 3      3     3
## 4      4     1
## 5      5     5
## 6      6     9
## 7      7    16
## 8      8    10
## 9      9    21
## 10    10    42
## # ... with 28 more rows
…
